%YAML 1.1
%TAG !u! tag:unity3d.com,2011:
--- !u!1001 &6426195780351594927
PrefabInstance:
  m_ObjectHideFlags: 0
  serializedVersion: 2
  m_Modification:
    m_TransformParent: {fileID: 0}
    m_Modifications:
    - target: {fileID: 6929493362936886666, guid: d15a2fd476fb92940b5c447fb6b0a435,
        type: 3}
      propertyPath: m_RootOrder
      value: 0
      objectReference: {fileID: 0}
    - target: {fileID: 6929493362936886666, guid: d15a2fd476fb92940b5c447fb6b0a435,
        type: 3}
      propertyPath: m_LocalPosition.x
      value: 0
      objectReference: {fileID: 0}
    - target: {fileID: 6929493362936886666, guid: d15a2fd476fb92940b5c447fb6b0a435,
        type: 3}
      propertyPath: m_LocalPosition.y
      value: 0
      objectReference: {fileID: 0}
    - target: {fileID: 6929493362936886666, guid: d15a2fd476fb92940b5c447fb6b0a435,
        type: 3}
      propertyPath: m_LocalPosition.z
      value: 0
      objectReference: {fileID: 0}
    - target: {fileID: 6929493362936886666, guid: d15a2fd476fb92940b5c447fb6b0a435,
        type: 3}
      propertyPath: m_LocalRotation.w
      value: 0.7071068
      objectReference: {fileID: 0}
    - target: {fileID: 6929493362936886666, guid: d15a2fd476fb92940b5c447fb6b0a435,
        type: 3}
      propertyPath: m_LocalRotation.x
      value: -0.7071068
      objectReference: {fileID: 0}
    - target: {fileID: 6929493362936886666, guid: d15a2fd476fb92940b5c447fb6b0a435,
        type: 3}
      propertyPath: m_LocalRotation.y
      value: 0
      objectReference: {fileID: 0}
    - target: {fileID: 6929493362936886666, guid: d15a2fd476fb92940b5c447fb6b0a435,
        type: 3}
      propertyPath: m_LocalRotation.z
      value: 0
      objectReference: {fileID: 0}
    - target: {fileID: 6929493362936886666, guid: d15a2fd476fb92940b5c447fb6b0a435,
        type: 3}
      propertyPath: m_LocalEulerAnglesHint.x
      value: -90
      objectReference: {fileID: 0}
    - target: {fileID: 6929493362936886666, guid: d15a2fd476fb92940b5c447fb6b0a435,
        type: 3}
      propertyPath: m_LocalEulerAnglesHint.y
      value: 0
      objectReference: {fileID: 0}
    - target: {fileID: 6929493362936886666, guid: d15a2fd476fb92940b5c447fb6b0a435,
        type: 3}
      propertyPath: m_LocalEulerAnglesHint.z
      value: 0
      objectReference: {fileID: 0}
    - target: {fileID: 6929493362936886667, guid: d15a2fd476fb92940b5c447fb6b0a435,
        type: 3}
      propertyPath: lengthInSec
      value: 0.35
      objectReference: {fileID: 0}
    - target: {fileID: 6929493362936886667, guid: d15a2fd476fb92940b5c447fb6b0a435,
        type: 3}
      propertyPath: InitialModule.startSize.scalar
      value: 1.2
      objectReference: {fileID: 0}
    - target: {fileID: 6929493362936886667, guid: d15a2fd476fb92940b5c447fb6b0a435,
        type: 3}
      propertyPath: InitialModule.startSpeed.scalar
      value: 200
      objectReference: {fileID: 0}
    - target: {fileID: 6929493362936886667, guid: d15a2fd476fb92940b5c447fb6b0a435,
        type: 3}
      propertyPath: EmissionModule.rateOverTime.scalar
      value: 300
      objectReference: {fileID: 0}
    - target: {fileID: 6929493362936886667, guid: d15a2fd476fb92940b5c447fb6b0a435,
        type: 3}
      propertyPath: InitialModule.startLifetime.scalar
      value: 1.5
      objectReference: {fileID: 0}
    - target: {fileID: 6929493362936886667, guid: d15a2fd476fb92940b5c447fb6b0a435,
        type: 3}
      propertyPath: InitialModule.startColor.maxColor.b
      value: 1
      objectReference: {fileID: 0}
    - target: {fileID: 6929493362936886667, guid: d15a2fd476fb92940b5c447fb6b0a435,
        type: 3}
      propertyPath: InitialModule.startColor.maxColor.g
      value: 0.5
      objectReference: {fileID: 0}
    - target: {fileID: 6929493362936886667, guid: d15a2fd476fb92940b5c447fb6b0a435,
        type: 3}
      propertyPath: InitialModule.startColor.maxColor.r
      value: 0.5
      objectReference: {fileID: 0}
    - target: {fileID: 6929493362936886677, guid: d15a2fd476fb92940b5c447fb6b0a435,
        type: 3}
      propertyPath: m_Name
      value: Particles_CatchBoost
      objectReference: {fileID: 0}
    m_RemovedComponents: []
  m_SourcePrefab: {fileID: 100100000, guid: d15a2fd476fb92940b5c447fb6b0a435, type: 3}
