%YAML 1.1
%TAG !u! tag:unity3d.com,2011:
--- !u!1 &5171437548616109930
GameObject:
  m_ObjectHideFlags: 0
  m_CorrespondingSourceObject: {fileID: 0}
  m_PrefabInstance: {fileID: 0}
  m_PrefabAsset: {fileID: 0}
  serializedVersion: 6
  m_Component:
  - component: {fileID: 5171437548616109931}
  - component: {fileID: 5171437548616109928}
  m_Layer: 0
  m_Name: CameraManager
  m_TagString: Untagged
  m_Icon: {fileID: 0}
  m_NavMeshLayer: 0
  m_StaticEditorFlags: 0
  m_IsActive: 1
--- !u!4 &5171437548616109931
Transform:
  m_ObjectHideFlags: 0
  m_CorrespondingSourceObject: {fileID: 0}
  m_PrefabInstance: {fileID: 0}
  m_PrefabAsset: {fileID: 0}
  m_GameObject: {fileID: 5171437548616109930}
  m_LocalRotation: {x: 0, y: 0, z: 0, w: 1}
  m_LocalPosition: {x: 0, y: 0, z: 0}
  m_LocalScale: {x: 1, y: 1, z: 1}
  m_ConstrainProportionsScale: 0
  m_Children: []
  m_Father: {fileID: 0}
  m_RootOrder: 0
  m_LocalEulerAnglesHint: {x: 0, y: 0, z: 0}
--- !u!114 &5171437548616109928
MonoBehaviour:
  m_ObjectHideFlags: 0
  m_CorrespondingSourceObject: {fileID: 0}
  m_PrefabInstance: {fileID: 0}
  m_PrefabAsset: {fileID: 0}
  m_GameObject: {fileID: 5171437548616109930}
  m_Enabled: 1
  m_EditorHideFlags: 0
  m_Script: {fileID: 11500000, guid: 2c275050452760d46b1451e5b6022db4, type: 3}
  m_Name: 
  m_EditorClassIdentifier: 
  cameraPrefab: {fileID: 3048133221317658268, guid: 2accea1b94afb6545a56c3df82ba87b0,
    type: 3}
  distanceToSpeedCoef: 1
  playerOffset: {x: -0.5, y: 2, z: 0}
  cameraRotation: {x: 23, y: 90, z: 0}
  startOffset: {x: -10, y: 1, z: 0}
  minXDistance: 3
  minXDistanceStrict: 2
